TLC.vcd
$date
    May 24, 2020  13:10:27
$end
$version
    TOOL:	ncsim	15.20-s039
$end
$timescale
    1 ns
$end

$scope module tb $end
$var reg       1 !    coil  $end
$var reg       1 "    button  $end
$var reg       1 #    rst  $end
$var reg       1 $    clk  $end
$var reg       7 %    time_short [6:0] $end
$var reg       7 &    time_long [6:0] $end
$var reg       7 '    time_buf [6:0] $end
$var wire      1 (    HG  $end
$var wire      1 )    HY  $end
$var wire      1 *    HR  $end
$var wire      1 +    FG  $end
$var wire      1 ,    FY  $end
$var wire      1 -    FR  $end
$var wire      7 .    HL_show [6:0] $end
$var wire      7 /    FL_show [6:0] $end

$scope module uut $end
$var wire      1 0    coil  $end
$var wire      1 1    button  $end
$var wire      1 2    rst  $end
$var wire      1 3    clk  $end
$var wire      7 4    time_short [6:0] $end
$var wire      7 5    time_long [6:0] $end
$var wire      1 (    HG  $end
$var wire      1 )    HY  $end
$var wire      1 *    HR  $end
$var wire      1 +    FG  $end
$var wire      1 ,    FY  $end
$var wire      1 -    FR  $end
$var reg       7 6    HL_show [6:0] $end
$var reg       7 7    FL_show [6:0] $end
$var wire      4 8    time_buf [3:0] $end
$var reg       3 9    cs [2:0] $end
$var reg       3 :    ns [2:0] $end
$var reg       7 ;    count0_cs [6:0] $end
$var reg       7 <    count0_ns [6:0] $end
$var reg       7 =    count1_cs [6:0] $end
$var reg       7 >    count1_ns [6:0] $end
$upscope $end

$upscope $end

$enddefinitions $end
$dumpvars
0!
0"
0#
0$
b100 %
b110 &
b10 '
x(
x)
x*
x+
x,
x-
bx .
bx /
00
01
02
03
b100 4
b110 5
bx 6
bx 7
b10 8
bx 9
bx :
bx ;
bx <
bx =
bx >
$end
#5
1$
1#
12
13
b0 9
b0 ;
b0 =
1-
0,
0+
1*
0)
0(
b0 :
b1 <
b0 >
b1100011 7
b11 6
b11 .
b1100011 /
#10
0$
03
#15
1$
13
#20
0#
0$
03
02
#25
1$
13
b1 ;
b10 <
b10 6
b10 .
#30
0$
03
#35
1$
13
b10 ;
b1 :
b11 <
b1 6
b1 .
#40
0$
03
#45
1$
13
b1 9
b11 ;
0*
1(
b0 <
b1100011 6
b1100011 .
#50
0$
03
#55
1$
13
b0 ;
#60
0$
03
#65
1$
13
#70
0$
03
#75
1$
13
#80
1"
0$
03
11
b11 :
#85
1$
13
b11 9
b1 >
b1011 7
b101 6
b101 .
b1011 /
#90
0"
0$
03
01
#95
1$
13
b1 =
b10 >
b1010 7
b100 6
b100 .
b1010 /
#100
0$
03
#105
1$
13
b10 =
b11 >
b1001 7
b11 6
b11 .
b1001 /
#110
0$
03
#115
1$
13
b11 =
b100 >
b1000 7
b10 6
b10 .
b1000 /
#120
0$
03
#125
1$
13
b100 =
b100 :
b101 >
b111 7
b1 6
b1 .
b111 /
#130
0$
03
#135
1$
13
b100 9
b101 =
1)
0(
b1 <
b0 >
b110 7
b0 6
b0 .
b110 /
#140
0$
03
#145
1$
13
b1 ;
b0 =
b10 <
b101 7
b101 /
#150
0$
03
#155
1$
13
b10 ;
b101 :
b11 <
b100 7
b100 /
#160
0$
03
#165
1$
13
b101 9
b11 ;
1*
0)
b1 >
b0 <
b11 7
b10000 6
b10000 .
b11 /
#170
0$
03
#175
1$
13
b0 ;
b1 =
b10 >
b10 7
b1111 6
b1111 .
b10 /
#180
0$
03
#185
1$
13
b10 =
b110 :
b11 >
b1 7
b1110 6
b1110 .
b1 /
#190
0$
03
#195
1$
13
b110 9
b11 =
0-
1+
b1 <
b0 >
b111 7
b1101 6
b1101 .
b111 /
#200
0$
03
#205
1$
13
b1 ;
b0 =
b10 <
b110 7
b1100 6
b1100 .
b110 /
#210
0$
03
#215
1$
13
b10 ;
b11 <
b101 7
b1011 6
b1011 .
b101 /
#220
0$
03
#225
1$
13
b11 ;
b100 <
b100 7
b1010 6
b1010 .
b100 /
#230
0$
03
#235
1$
13
b100 ;
b101 <
b11 7
b1001 6
b1001 .
b11 /
#240
0$
03
#245
1$
13
b101 ;
b110 <
b10 7
b1000 6
b1000 .
b10 /
#250
0$
03
#255
1$
13
b110 ;
b111 :
b111 <
b1 7
b111 6
b111 .
b1 /
#260
0$
03
#265
1$
13
b111 9
b111 ;
1,
0+
b1 >
b0 <
b0 7
b110 6
b110 .
b0 /
#270
0$
03
#275
1$
13
b0 ;
b1 =
b10 >
b101 6
b101 .
#280
0$
03
#285
1$
13
b10 =
b0 :
b11 >
b100 6
b100 .
#290
0$
03
#295
1$
13
b0 9
b11 =
1-
0,
b1 <
b0 >
b1100011 7
b11 6
b11 .
b1100011 /
#300
0$
03
#305
1$
13
b1 ;
b0 =
b10 <
b10 6
b10 .
#310
0$
03
#315
1$
13
b10 ;
b1 :
b11 <
b1 6
b1 .
#320
0$
03
#325
1$
13
b1 9
b11 ;
0*
1(
b0 <
b1100011 6
b1100011 .
#330
0$
03
#335
1$
13
b0 ;
#340
1!
0$
03
10
b10 :
#345
1$
13
b10 9
b1 <
#350
0$
03
#355
1$
13
b1 ;
b10 <
#360
0$
03
#365
1$
13
b10 ;
b11 :
b11 <
#370
0$
03
#375
1$
13
b11 9
b11 ;
b1 >
b0 <
b1011 7
b101 6
b101 .
b1011 /
#380
0$
03
#385
1$
13
b0 ;
b1 =
b10 >
b1010 7
b100 6
b100 .
b1010 /
#390
0!
0$
03
00
#395
1$
13
b10 =
b11 >
b1001 7
b11 6
b11 .
b1001 /
#400
0$
03
#405
1$
13
b11 =
b100 >
b1000 7
b10 6
b10 .
b1000 /
#410
0$
03
#415
1$
13
b100 =
b100 :
b101 >
b111 7
b1 6
b1 .
b111 /
#420
0$
03
#425
1$
13
b100 9
b101 =
1)
0(
b1 <
b0 >
b110 7
b0 6
b0 .
b110 /
#430
0$
03
#435
1$
13
b1 ;
b0 =
b10 <
b101 7
b101 /
#440
0$
03
#445
1$
13
b10 ;
b101 :
b11 <
b100 7
b100 /
#450
0$
03
#455
1$
13
b101 9
b11 ;
1*
0)
b1 >
b0 <
b11 7
b10000 6
b10000 .
b11 /
#460
0$
03
#465
1$
13
b0 ;
b1 =
b10 >
b10 7
b1111 6
b1111 .
b10 /
#470
0$
03
#475
1$
13
b10 =
b110 :
b11 >
b1 7
b1110 6
b1110 .
b1 /
#480
0$
03
#485
1$
13
b110 9
b11 =
0-
1+
b1 <
b0 >
b111 7
b1101 6
b1101 .
b111 /
#490
0$
03
#495
1$
13
b1 ;
b0 =
b10 <
b110 7
b1100 6
b1100 .
b110 /
#500
0$
03
#505
1$
13
b10 ;
b11 <
b101 7
b1011 6
b1011 .
b101 /
#510
0$
03
#515
1$
13
b11 ;
b100 <
b100 7
b1010 6
b1010 .
b100 /
#520
0$
03
#525
1$
13
b100 ;
b101 <
b11 7
b1001 6
b1001 .
b11 /
#530
0$
03
#535
1$
13
b101 ;
b110 <
b10 7
b1000 6
b1000 .
b10 /
#540
0$
03
#545
1$
13
b110 ;
b111 :
b111 <
b1 7
b111 6
b111 .
b1 /
#550
0$
03
#555
1$
13
b111 9
b111 ;
1,
0+
b1 >
b0 <
b0 7
b110 6
b110 .
b0 /
#560
0$
03
#565
1$
13
b0 ;
b1 =
b10 >
b101 6
b101 .
#570
0$
03
#575
1$
13
b10 =
b0 :
b11 >
b100 6
b100 .
#580
0$
03
#585
1$
13
b0 9
b11 =
1-
0,
b1 <
b0 >
b1100011 7
b11 6
b11 .
b1100011 /
#590
0$
03
#595
1$
13
b1 ;
b0 =
b10 <
b10 6
b10 .
#600
0$
03
#605
1$
13
b10 ;
b1 :
b11 <
b1 6
b1 .
#610
0$
03
#615
1$
13
b1 9
b11 ;
0*
1(
b0 <
b1100011 6
b1100011 .
#620
0$
03
#625
1$
13
b0 ;
